%YAML 1.1
%TAG !u! tag:unity3d.com,2011:
--- !u!74 &7400000
AnimationClip:
  m_ObjectHideFlags: 0
  m_CorrespondingSourceObject: {fileID: 0}
  m_PrefabInstance: {fileID: 0}
  m_PrefabAsset: {fileID: 0}
  m_Name: Huruf E
  serializedVersion: 6
  m_Legacy: 0
  m_Compressed: 0
  m_UseHighQualityCurve: 1
  m_RotationCurves: []
  m_CompressedRotationCurves: []
  m_EulerCurves: []
  m_PositionCurves: []
  m_ScaleCurves: []
  m_FloatCurves: []
  m_PPtrCurves:
  - curve:
    - time: 0
      value: {fileID: -6899824233642787023, guid: 41c4fe3b78ba9d045800f89cd390bf53,
        type: 3}
    - time: 0.06666667
      value: {fileID: 3256984493135268794, guid: 41c4fe3b78ba9d045800f89cd390bf53,
        type: 3}
    - time: 0.13333334
      value: {fileID: -8125274565183927690, guid: 41c4fe3b78ba9d045800f89cd390bf53,
        type: 3}
    - time: 0.2
      value: {fileID: 3588952690298079728, guid: 41c4fe3b78ba9d045800f89cd390bf53,
        type: 3}
    - time: 0.3
      value: {fileID: -7087757390065484297, guid: 41c4fe3b78ba9d045800f89cd390bf53,
        type: 3}
    - time: 0.36666667
      value: {fileID: 3299142232549747090, guid: 41c4fe3b78ba9d045800f89cd390bf53,
        type: 3}
    - time: 0.43333334
      value: {fileID: 8255472411391584964, guid: 41c4fe3b78ba9d045800f89cd390bf53,
        type: 3}
    - time: 0.5
      value: {fileID: 653281692216423862, guid: 41c4fe3b78ba9d045800f89cd390bf53,
        type: 3}
    - time: 0.56666666
      value: {fileID: -5358888621453604573, guid: 41c4fe3b78ba9d045800f89cd390bf53,
        type: 3}
    - time: 0.6333333
      value: {fileID: -1487461391200342151, guid: 41c4fe3b78ba9d045800f89cd390bf53,
        type: 3}
    - time: 0.7
      value: {fileID: 7179156804133939243, guid: 41c4fe3b78ba9d045800f89cd390bf53,
        type: 3}
    - time: 0.78333336
      value: {fileID: -1487461391200342151, guid: 41c4fe3b78ba9d045800f89cd390bf53,
        type: 3}
    - time: 0.85
      value: {fileID: -5358888621453604573, guid: 41c4fe3b78ba9d045800f89cd390bf53,
        type: 3}
    - time: 0.9166667
      value: {fileID: 653281692216423862, guid: 41c4fe3b78ba9d045800f89cd390bf53,
        type: 3}
    - time: 0.98333335
      value: {fileID: 8255472411391584964, guid: 41c4fe3b78ba9d045800f89cd390bf53,
        type: 3}
    - time: 1.05
      value: {fileID: 3299142232549747090, guid: 41c4fe3b78ba9d045800f89cd390bf53,
        type: 3}
    - time: 1.1166667
      value: {fileID: -7087757390065484297, guid: 41c4fe3b78ba9d045800f89cd390bf53,
        type: 3}
    - time: 1.1833333
      value: {fileID: 3588952690298079728, guid: 41c4fe3b78ba9d045800f89cd390bf53,
        type: 3}
    - time: 1.2833333
      value: {fileID: -8125274565183927690, guid: 41c4fe3b78ba9d045800f89cd390bf53,
        type: 3}
    - time: 1.35
      value: {fileID: 3256984493135268794, guid: 41c4fe3b78ba9d045800f89cd390bf53,
        type: 3}
    - time: 1.4166666
      value: {fileID: -6899824233642787023, guid: 41c4fe3b78ba9d045800f89cd390bf53,
        type: 3}
    - time: 1.4833333
      value: {fileID: 5028088565836071760, guid: 41c4fe3b78ba9d045800f89cd390bf53,
        type: 3}
    attribute: m_Sprite
    path: 
    classID: 212
    script: {fileID: 0}
  m_SampleRate: 60
  m_WrapMode: 0
  m_Bounds:
    m_Center: {x: 0, y: 0, z: 0}
    m_Extent: {x: 0, y: 0, z: 0}
  m_ClipBindingConstant:
    genericBindings:
    - serializedVersion: 2
      path: 0
      attribute: 0
      script: {fileID: 0}
      typeID: 212
      customType: 23
      isPPtrCurve: 1
    pptrCurveMapping:
    - {fileID: -6899824233642787023, guid: 41c4fe3b78ba9d045800f89cd390bf53, type: 3}
    - {fileID: 3256984493135268794, guid: 41c4fe3b78ba9d045800f89cd390bf53, type: 3}
    - {fileID: -8125274565183927690, guid: 41c4fe3b78ba9d045800f89cd390bf53, type: 3}
    - {fileID: 3588952690298079728, guid: 41c4fe3b78ba9d045800f89cd390bf53, type: 3}
    - {fileID: -7087757390065484297, guid: 41c4fe3b78ba9d045800f89cd390bf53, type: 3}
    - {fileID: 3299142232549747090, guid: 41c4fe3b78ba9d045800f89cd390bf53, type: 3}
    - {fileID: 8255472411391584964, guid: 41c4fe3b78ba9d045800f89cd390bf53, type: 3}
    - {fileID: 653281692216423862, guid: 41c4fe3b78ba9d045800f89cd390bf53, type: 3}
    - {fileID: -5358888621453604573, guid: 41c4fe3b78ba9d045800f89cd390bf53, type: 3}
    - {fileID: -1487461391200342151, guid: 41c4fe3b78ba9d045800f89cd390bf53, type: 3}
    - {fileID: 7179156804133939243, guid: 41c4fe3b78ba9d045800f89cd390bf53, type: 3}
    - {fileID: -1487461391200342151, guid: 41c4fe3b78ba9d045800f89cd390bf53, type: 3}
    - {fileID: -5358888621453604573, guid: 41c4fe3b78ba9d045800f89cd390bf53, type: 3}
    - {fileID: 653281692216423862, guid: 41c4fe3b78ba9d045800f89cd390bf53, type: 3}
    - {fileID: 8255472411391584964, guid: 41c4fe3b78ba9d045800f89cd390bf53, type: 3}
    - {fileID: 3299142232549747090, guid: 41c4fe3b78ba9d045800f89cd390bf53, type: 3}
    - {fileID: -7087757390065484297, guid: 41c4fe3b78ba9d045800f89cd390bf53, type: 3}
    - {fileID: 3588952690298079728, guid: 41c4fe3b78ba9d045800f89cd390bf53, type: 3}
    - {fileID: -8125274565183927690, guid: 41c4fe3b78ba9d045800f89cd390bf53, type: 3}
    - {fileID: 3256984493135268794, guid: 41c4fe3b78ba9d045800f89cd390bf53, type: 3}
    - {fileID: -6899824233642787023, guid: 41c4fe3b78ba9d045800f89cd390bf53, type: 3}
    - {fileID: 5028088565836071760, guid: 41c4fe3b78ba9d045800f89cd390bf53, type: 3}
  m_AnimationClipSettings:
    serializedVersion: 2
    m_AdditiveReferencePoseClip: {fileID: 0}
    m_AdditiveReferencePoseTime: 0
    m_StartTime: 0
    m_StopTime: 1.5
    m_OrientationOffsetY: 0
    m_Level: 0
    m_CycleOffset: 0
    m_HasAdditiveReferencePose: 0
    m_LoopTime: 1
    m_LoopBlend: 0
    m_LoopBlendOrientation: 0
    m_LoopBlendPositionY: 0
    m_LoopBlendPositionXZ: 0
    m_KeepOriginalOrientation: 0
    m_KeepOriginalPositionY: 1
    m_KeepOriginalPositionXZ: 0
    m_HeightFromFeet: 0
    m_Mirror: 0
  m_EditorCurves: []
  m_EulerEditorCurves: []
  m_HasGenericRootTransform: 0
  m_HasMotionFloatCurves: 0
  m_Events: []
