%YAML 1.1
%TAG !u! tag:unity3d.com,2011:
--- !u!74 &7400000
AnimationClip:
  m_ObjectHideFlags: 0
  m_CorrespondingSourceObject: {fileID: 0}
  m_PrefabInstance: {fileID: 0}
  m_PrefabAsset: {fileID: 0}
  m_Name: Huruf I
  serializedVersion: 6
  m_Legacy: 0
  m_Compressed: 0
  m_UseHighQualityCurve: 1
  m_RotationCurves: []
  m_CompressedRotationCurves: []
  m_EulerCurves: []
  m_PositionCurves: []
  m_ScaleCurves: []
  m_FloatCurves: []
  m_PPtrCurves:
  - curve:
    - time: 0
      value: {fileID: 6570383111775281124, guid: cf388d087342a754ea3ea316ff1c65d8,
        type: 3}
    - time: 0.083333336
      value: {fileID: -3937525420254512900, guid: cf388d087342a754ea3ea316ff1c65d8,
        type: 3}
    - time: 0.15
      value: {fileID: -6953693991555297933, guid: cf388d087342a754ea3ea316ff1c65d8,
        type: 3}
    - time: 0.23333333
      value: {fileID: 1411018811143341356, guid: cf388d087342a754ea3ea316ff1c65d8,
        type: 3}
    - time: 0.31666666
      value: {fileID: -6754868650191058130, guid: cf388d087342a754ea3ea316ff1c65d8,
        type: 3}
    - time: 0.38333333
      value: {fileID: 3597843883640469678, guid: cf388d087342a754ea3ea316ff1c65d8,
        type: 3}
    - time: 0.46666667
      value: {fileID: -7875390158742114806, guid: cf388d087342a754ea3ea316ff1c65d8,
        type: 3}
    - time: 0.55
      value: {fileID: 7129593239803683522, guid: cf388d087342a754ea3ea316ff1c65d8,
        type: 3}
    - time: 0.6166667
      value: {fileID: -8369855107368625625, guid: cf388d087342a754ea3ea316ff1c65d8,
        type: 3}
    - time: 0.7
      value: {fileID: 2097176334789311393, guid: cf388d087342a754ea3ea316ff1c65d8,
        type: 3}
    - time: 0.78333336
      value: {fileID: 2097176334789311393, guid: cf388d087342a754ea3ea316ff1c65d8,
        type: 3}
    - time: 0.85
      value: {fileID: -8369855107368625625, guid: cf388d087342a754ea3ea316ff1c65d8,
        type: 3}
    - time: 0.93333334
      value: {fileID: 7129593239803683522, guid: cf388d087342a754ea3ea316ff1c65d8,
        type: 3}
    - time: 1.0166667
      value: {fileID: -7875390158742114806, guid: cf388d087342a754ea3ea316ff1c65d8,
        type: 3}
    - time: 1.0833334
      value: {fileID: -6754868650191058130, guid: cf388d087342a754ea3ea316ff1c65d8,
        type: 3}
    - time: 1.1666666
      value: {fileID: 1411018811143341356, guid: cf388d087342a754ea3ea316ff1c65d8,
        type: 3}
    - time: 1.25
      value: {fileID: -6953693991555297933, guid: cf388d087342a754ea3ea316ff1c65d8,
        type: 3}
    - time: 1.3166667
      value: {fileID: -3937525420254512900, guid: cf388d087342a754ea3ea316ff1c65d8,
        type: 3}
    - time: 1.4
      value: {fileID: 6570383111775281124, guid: cf388d087342a754ea3ea316ff1c65d8,
        type: 3}
    attribute: m_Sprite
    path: 
    classID: 212
    script: {fileID: 0}
  m_SampleRate: 60
  m_WrapMode: 0
  m_Bounds:
    m_Center: {x: 0, y: 0, z: 0}
    m_Extent: {x: 0, y: 0, z: 0}
  m_ClipBindingConstant:
    genericBindings:
    - serializedVersion: 2
      path: 0
      attribute: 0
      script: {fileID: 0}
      typeID: 212
      customType: 23
      isPPtrCurve: 1
    pptrCurveMapping:
    - {fileID: 6570383111775281124, guid: cf388d087342a754ea3ea316ff1c65d8, type: 3}
    - {fileID: -3937525420254512900, guid: cf388d087342a754ea3ea316ff1c65d8, type: 3}
    - {fileID: -6953693991555297933, guid: cf388d087342a754ea3ea316ff1c65d8, type: 3}
    - {fileID: 1411018811143341356, guid: cf388d087342a754ea3ea316ff1c65d8, type: 3}
    - {fileID: -6754868650191058130, guid: cf388d087342a754ea3ea316ff1c65d8, type: 3}
    - {fileID: 3597843883640469678, guid: cf388d087342a754ea3ea316ff1c65d8, type: 3}
    - {fileID: -7875390158742114806, guid: cf388d087342a754ea3ea316ff1c65d8, type: 3}
    - {fileID: 7129593239803683522, guid: cf388d087342a754ea3ea316ff1c65d8, type: 3}
    - {fileID: -8369855107368625625, guid: cf388d087342a754ea3ea316ff1c65d8, type: 3}
    - {fileID: 2097176334789311393, guid: cf388d087342a754ea3ea316ff1c65d8, type: 3}
    - {fileID: 2097176334789311393, guid: cf388d087342a754ea3ea316ff1c65d8, type: 3}
    - {fileID: -8369855107368625625, guid: cf388d087342a754ea3ea316ff1c65d8, type: 3}
    - {fileID: 7129593239803683522, guid: cf388d087342a754ea3ea316ff1c65d8, type: 3}
    - {fileID: -7875390158742114806, guid: cf388d087342a754ea3ea316ff1c65d8, type: 3}
    - {fileID: -6754868650191058130, guid: cf388d087342a754ea3ea316ff1c65d8, type: 3}
    - {fileID: 1411018811143341356, guid: cf388d087342a754ea3ea316ff1c65d8, type: 3}
    - {fileID: -6953693991555297933, guid: cf388d087342a754ea3ea316ff1c65d8, type: 3}
    - {fileID: -3937525420254512900, guid: cf388d087342a754ea3ea316ff1c65d8, type: 3}
    - {fileID: 6570383111775281124, guid: cf388d087342a754ea3ea316ff1c65d8, type: 3}
  m_AnimationClipSettings:
    serializedVersion: 2
    m_AdditiveReferencePoseClip: {fileID: 0}
    m_AdditiveReferencePoseTime: 0
    m_StartTime: 0
    m_StopTime: 1.4166666
    m_OrientationOffsetY: 0
    m_Level: 0
    m_CycleOffset: 0
    m_HasAdditiveReferencePose: 0
    m_LoopTime: 1
    m_LoopBlend: 0
    m_LoopBlendOrientation: 0
    m_LoopBlendPositionY: 0
    m_LoopBlendPositionXZ: 0
    m_KeepOriginalOrientation: 0
    m_KeepOriginalPositionY: 1
    m_KeepOriginalPositionXZ: 0
    m_HeightFromFeet: 0
    m_Mirror: 0
  m_EditorCurves: []
  m_EulerEditorCurves: []
  m_HasGenericRootTransform: 0
  m_HasMotionFloatCurves: 0
  m_Events: []
