%YAML 1.1
%TAG !u! tag:unity3d.com,2011:
--- !u!74 &7400000
AnimationClip:
  m_ObjectHideFlags: 0
  m_CorrespondingSourceObject: {fileID: 0}
  m_PrefabInstance: {fileID: 0}
  m_PrefabAsset: {fileID: 0}
  m_Name: WalkLeft
  serializedVersion: 6
  m_Legacy: 0
  m_Compressed: 0
  m_UseHighQualityCurve: 1
  m_RotationCurves: []
  m_CompressedRotationCurves: []
  m_EulerCurves: []
  m_PositionCurves: []
  m_ScaleCurves: []
  m_FloatCurves: []
  m_PPtrCurves:
  - curve:
    - time: 0
      value: {fileID: 21300000, guid: afb3af5b4ef9c6f47ae58b8409140b46, type: 3}
    - time: 0.05
      value: {fileID: 21300000, guid: 9285219e11732d249b039e2a04860bf9, type: 3}
    - time: 0.11666667
      value: {fileID: 21300000, guid: 30428cbbe603860418bead63155e37bc, type: 3}
    - time: 0.16666667
      value: {fileID: 21300000, guid: f8095c57586980746b301bd575f1e67e, type: 3}
    - time: 0.21666667
      value: {fileID: 21300000, guid: 96abbbdb5f8b0bb4e9860737edb55c92, type: 3}
    - time: 0.28333333
      value: {fileID: 21300000, guid: d134ea5505911ae4ebbeaef3fa4352d6, type: 3}
    - time: 0.33333334
      value: {fileID: 21300000, guid: 80bcb52dd7d71024aaad14c2de93f9f7, type: 3}
    - time: 0.38333333
      value: {fileID: 21300000, guid: a4441de62d8acef41917bef1a5569363, type: 3}
    - time: 0.45
      value: {fileID: 21300000, guid: bc46bf1552892c74787b54b598db4d75, type: 3}
    - time: 0.5
      value: {fileID: 21300000, guid: 1c193e30794596c4c8c14c5287e30172, type: 3}
    - time: 0.55
      value: {fileID: 21300000, guid: 2abd9d2464b29ab46a3928045cb77d4a, type: 3}
    - time: 0.6166667
      value: {fileID: 21300000, guid: fa7a8cf09c5ce914c978619d62d843b5, type: 3}
    - time: 0.6666667
      value: {fileID: 21300000, guid: 52bb5809dbbf96143b05245e46e53e67, type: 3}
    - time: 0.71666664
      value: {fileID: 21300000, guid: be13f502c831932449f7cdbbc50419dd, type: 3}
    - time: 0.78333336
      value: {fileID: 21300000, guid: 817f102758ea4c3488e1163a68d1d3f6, type: 3}
    - time: 0.8333333
      value: {fileID: 21300000, guid: a17b5c88d4b74494292c7622bd47bae9, type: 3}
    attribute: m_Sprite
    path: 
    classID: 212
    script: {fileID: 0}
  m_SampleRate: 60
  m_WrapMode: 0
  m_Bounds:
    m_Center: {x: 0, y: 0, z: 0}
    m_Extent: {x: 0, y: 0, z: 0}
  m_ClipBindingConstant:
    genericBindings:
    - serializedVersion: 2
      path: 0
      attribute: 0
      script: {fileID: 0}
      typeID: 212
      customType: 23
      isPPtrCurve: 1
    pptrCurveMapping:
    - {fileID: 21300000, guid: afb3af5b4ef9c6f47ae58b8409140b46, type: 3}
    - {fileID: 21300000, guid: 9285219e11732d249b039e2a04860bf9, type: 3}
    - {fileID: 21300000, guid: 30428cbbe603860418bead63155e37bc, type: 3}
    - {fileID: 21300000, guid: f8095c57586980746b301bd575f1e67e, type: 3}
    - {fileID: 21300000, guid: 96abbbdb5f8b0bb4e9860737edb55c92, type: 3}
    - {fileID: 21300000, guid: d134ea5505911ae4ebbeaef3fa4352d6, type: 3}
    - {fileID: 21300000, guid: 80bcb52dd7d71024aaad14c2de93f9f7, type: 3}
    - {fileID: 21300000, guid: a4441de62d8acef41917bef1a5569363, type: 3}
    - {fileID: 21300000, guid: bc46bf1552892c74787b54b598db4d75, type: 3}
    - {fileID: 21300000, guid: 1c193e30794596c4c8c14c5287e30172, type: 3}
    - {fileID: 21300000, guid: 2abd9d2464b29ab46a3928045cb77d4a, type: 3}
    - {fileID: 21300000, guid: fa7a8cf09c5ce914c978619d62d843b5, type: 3}
    - {fileID: 21300000, guid: 52bb5809dbbf96143b05245e46e53e67, type: 3}
    - {fileID: 21300000, guid: be13f502c831932449f7cdbbc50419dd, type: 3}
    - {fileID: 21300000, guid: 817f102758ea4c3488e1163a68d1d3f6, type: 3}
    - {fileID: 21300000, guid: a17b5c88d4b74494292c7622bd47bae9, type: 3}
  m_AnimationClipSettings:
    serializedVersion: 2
    m_AdditiveReferencePoseClip: {fileID: 0}
    m_AdditiveReferencePoseTime: 0
    m_StartTime: 0
    m_StopTime: 0.84999996
    m_OrientationOffsetY: 0
    m_Level: 0
    m_CycleOffset: 0
    m_HasAdditiveReferencePose: 0
    m_LoopTime: 1
    m_LoopBlend: 0
    m_LoopBlendOrientation: 0
    m_LoopBlendPositionY: 0
    m_LoopBlendPositionXZ: 0
    m_KeepOriginalOrientation: 0
    m_KeepOriginalPositionY: 1
    m_KeepOriginalPositionXZ: 0
    m_HeightFromFeet: 0
    m_Mirror: 0
  m_EditorCurves: []
  m_EulerEditorCurves: []
  m_HasGenericRootTransform: 0
  m_HasMotionFloatCurves: 0
  m_Events: []
