%YAML 1.1
%TAG !u! tag:unity3d.com,2011:
--- !u!74 &7400000
AnimationClip:
  m_ObjectHideFlags: 0
  m_CorrespondingSourceObject: {fileID: 0}
  m_PrefabInstance: {fileID: 0}
  m_PrefabAsset: {fileID: 0}
  m_Name: WalkRight
  serializedVersion: 6
  m_Legacy: 0
  m_Compressed: 0
  m_UseHighQualityCurve: 1
  m_RotationCurves: []
  m_CompressedRotationCurves: []
  m_EulerCurves: []
  m_PositionCurves: []
  m_ScaleCurves: []
  m_FloatCurves: []
  m_PPtrCurves:
  - curve:
    - time: 0
      value: {fileID: 21300000, guid: cc0e31fbf39d0574f964a37af1eed5b8, type: 3}
    - time: 0.05
      value: {fileID: 21300000, guid: ee91d1b82ae33de4abe170b64c8126f2, type: 3}
    - time: 0.11666667
      value: {fileID: 21300000, guid: d5dce1603c65ff34ea76af1944572fc4, type: 3}
    - time: 0.16666667
      value: {fileID: 21300000, guid: 269e3c61da56a74489de4cf8b8f64251, type: 3}
    - time: 0.21666667
      value: {fileID: 21300000, guid: f9167f4ea75921446baa4182a0c479df, type: 3}
    - time: 0.28333333
      value: {fileID: 21300000, guid: f0c93e8dfee5a0c4bbc0e7dc10d7285e, type: 3}
    - time: 0.35
      value: {fileID: 21300000, guid: 8c06d9336e47e96418e8610e2083fd60, type: 3}
    - time: 0.36666667
      value: {fileID: 21300000, guid: 68f3388983b5b254a9b23aee3d2755cc, type: 3}
    - time: 0.46666667
      value: {fileID: 21300000, guid: 446fa21a34d136c4d806758850ca4937, type: 3}
    - time: 0.48333332
      value: {fileID: 21300000, guid: d26882cda08b28a46a5f840d6323ee48, type: 3}
    - time: 0.55
      value: {fileID: 21300000, guid: b3b917b5a032d3749ae896498fe121ac, type: 3}
    - time: 0.6333333
      value: {fileID: 21300000, guid: c67a37627868c2b46bb9a62e44ce450a, type: 3}
    - time: 0.6666667
      value: {fileID: 21300000, guid: 525e6a98f4b280646ab9e8129739987b, type: 3}
    - time: 0.71666664
      value: {fileID: 21300000, guid: 7d769592ceae9c04ebd5320ec6b71b88, type: 3}
    - time: 0.78333336
      value: {fileID: 21300000, guid: 3e126101586f3e04b8057e45dbd5a02e, type: 3}
    - time: 0.8333333
      value: {fileID: 21300000, guid: d3c8de4db1619124f99297bcbcafc5ce, type: 3}
    attribute: m_Sprite
    path: 
    classID: 212
    script: {fileID: 0}
  m_SampleRate: 60
  m_WrapMode: 0
  m_Bounds:
    m_Center: {x: 0, y: 0, z: 0}
    m_Extent: {x: 0, y: 0, z: 0}
  m_ClipBindingConstant:
    genericBindings:
    - serializedVersion: 2
      path: 0
      attribute: 0
      script: {fileID: 0}
      typeID: 212
      customType: 23
      isPPtrCurve: 1
    pptrCurveMapping:
    - {fileID: 21300000, guid: cc0e31fbf39d0574f964a37af1eed5b8, type: 3}
    - {fileID: 21300000, guid: ee91d1b82ae33de4abe170b64c8126f2, type: 3}
    - {fileID: 21300000, guid: d5dce1603c65ff34ea76af1944572fc4, type: 3}
    - {fileID: 21300000, guid: 269e3c61da56a74489de4cf8b8f64251, type: 3}
    - {fileID: 21300000, guid: f9167f4ea75921446baa4182a0c479df, type: 3}
    - {fileID: 21300000, guid: f0c93e8dfee5a0c4bbc0e7dc10d7285e, type: 3}
    - {fileID: 21300000, guid: 8c06d9336e47e96418e8610e2083fd60, type: 3}
    - {fileID: 21300000, guid: 68f3388983b5b254a9b23aee3d2755cc, type: 3}
    - {fileID: 21300000, guid: 446fa21a34d136c4d806758850ca4937, type: 3}
    - {fileID: 21300000, guid: d26882cda08b28a46a5f840d6323ee48, type: 3}
    - {fileID: 21300000, guid: b3b917b5a032d3749ae896498fe121ac, type: 3}
    - {fileID: 21300000, guid: c67a37627868c2b46bb9a62e44ce450a, type: 3}
    - {fileID: 21300000, guid: 525e6a98f4b280646ab9e8129739987b, type: 3}
    - {fileID: 21300000, guid: 7d769592ceae9c04ebd5320ec6b71b88, type: 3}
    - {fileID: 21300000, guid: 3e126101586f3e04b8057e45dbd5a02e, type: 3}
    - {fileID: 21300000, guid: d3c8de4db1619124f99297bcbcafc5ce, type: 3}
  m_AnimationClipSettings:
    serializedVersion: 2
    m_AdditiveReferencePoseClip: {fileID: 0}
    m_AdditiveReferencePoseTime: 0
    m_StartTime: 0
    m_StopTime: 0.84999996
    m_OrientationOffsetY: 0
    m_Level: 0
    m_CycleOffset: 0
    m_HasAdditiveReferencePose: 0
    m_LoopTime: 1
    m_LoopBlend: 0
    m_LoopBlendOrientation: 0
    m_LoopBlendPositionY: 0
    m_LoopBlendPositionXZ: 0
    m_KeepOriginalOrientation: 0
    m_KeepOriginalPositionY: 1
    m_KeepOriginalPositionXZ: 0
    m_HeightFromFeet: 0
    m_Mirror: 0
  m_EditorCurves: []
  m_EulerEditorCurves: []
  m_HasGenericRootTransform: 0
  m_HasMotionFloatCurves: 0
  m_Events: []
